verif/obj/wave.vcd
$date
	Sun Feb  2 17:07:16 2025
$end
$version
	Icarus Verilog
$end
$timescale
	1ps
$end
$scope module rv32i_core_tb $end
$var reg 1 ! clk $end
$var reg 1 " reset_n $end
$scope module uut $end
$var wire 32 # OUT_T [31:0] $end
$var wire 32 $ PC [31:0] $end
$var wire 1 ! clk $end
$var wire 32 % csr_data_out [31:0] $end
$var wire 32 & data_in [31:0] $end
$var wire 32 ' offset_adder [31:0] $end
$var wire 1 ( reset $end
$var wire 1 " reset_n $end
$var wire 1 ) we $end
$var wire 32 * write_back [31:0] $end
$var wire 32 + write_adder [31:0] $end
$var wire 32 , reg_2 [31:0] $end
$var wire 32 - reg_1 [31:0] $end
$var wire 5 . rd [4:0] $end
$var wire 32 / operand2 [31:0] $end
$var wire 32 0 operand1 [31:0] $end
$var wire 1 1 mret_in $end
$var wire 32 2 inst_out [31:0] $end
$var wire 32 3 immediate_data [31:0] $end
$var wire 1 4 illegal_instruction_in $end
$var wire 32 5 fetch_address [31:0] $end
$var wire 1 6 ecall_in $end
$var wire 1 7 ebreak_in $end
$var wire 15 8 control_unit_out [14:0] $end
$var wire 9 9 contrl_decoder [8:0] $end
$var wire 1 : branch_true $end
$var wire 32 ; U_type [31:0] $end
$var wire 32 < UJ_type [31:0] $end
$var wire 32 = S_type [31:0] $end
$var wire 32 > SB_type [31:0] $end
$var wire 32 ? I_type [31:0] $end
$var wire 32 @ ALU_OUTPUT [31:0] $end
$var reg 32 A address_q [31:0] $end
$var reg 2 B pc_sel [1:0] $end
$var reg 32 C wb [31:0] $end
$scope module fetch_i $end
$var wire 1 ! clk_in $end
$var wire 2 D pc_sel [1:0] $end
$var wire 1 " reset_n $end
$var wire 32 E rs1_in [31:0] $end
$var wire 32 F pc [31:0] $end
$var wire 1 : branch_true $end
$var wire 32 G UJ_immediate_in [31:0] $end
$var wire 32 H SB_immediate_in [31:0] $end
$var wire 32 I I_immediate_in [31:0] $end
$var reg 32 J fetch_address_o [31:0] $end
$var reg 32 K pcplus4 [31:0] $end
$upscope $end
$scope module i_ALU $end
$var wire 4 L alu_operand_in [3:0] $end
$var wire 32 M operand1_in [31:0] $end
$var wire 32 N operand2_in [31:0] $end
$var reg 32 O alu_result_out [31:0] $end
$upscope $end
$scope module i_branch $end
$var wire 1 P branch_en_in $end
$var wire 3 Q function_3_in [2:0] $end
$var wire 32 R operand1_in [31:0] $end
$var wire 32 S operand2_in [31:0] $end
$var reg 1 : branch_taken_out $end
$upscope $end
$scope module i_control_decoder $end
$var wire 32 T opcode_in [31:0] $end
$var reg 9 U decoded_out [8:0] $end
$var reg 1 7 ebreak_out $end
$var reg 1 6 ecall_out $end
$var reg 1 4 illegal_ins_out $end
$var reg 1 1 mret_out $end
$upscope $end
$scope module i_control_unit $end
$var wire 3 V function_3_in [2:0] $end
$var wire 1 W function_7_in $end
$var wire 9 X type_decode_in [8:0] $end
$var reg 15 Y control_unit_out [14:0] $end
$var reg 3 Z sel [2:0] $end
$upscope $end
$scope module i_data_mem $end
$var wire 32 [ address_in [31:0] $end
$var wire 1 ! clk_in $end
$var wire 1 \ load_en_in $end
$var wire 1 ] store_en_in $end
$var wire 32 ^ store_data_in [31:0] $end
$var reg 32 _ data_out [31:0] $end
$upscope $end
$scope module i_immediate $end
$var wire 32 ` pc_in [31:0] $end
$var wire 32 a instruction_in [31:0] $end
$var reg 12 b I_type [11:0] $end
$var reg 32 c I_type_imm_out [31:0] $end
$var reg 12 d SB_type [11:0] $end
$var reg 32 e SB_type_imm_out [31:0] $end
$var reg 12 f S_type [11:0] $end
$var reg 32 g S_type_imm_out [31:0] $end
$var reg 21 h UJ_type [20:0] $end
$var reg 32 i UJ_type_imm_out [31:0] $end
$var reg 32 j U_type_imm_out [31:0] $end
$upscope $end
$scope module i_reg_file $end
$var wire 1 ! clk_in $end
$var wire 5 k destination_register_in [4:0] $end
$var wire 32 l input_data_in [31:0] $end
$var wire 1 " reset_in $end
$var wire 5 m rs1_address_in [4:0] $end
$var wire 5 n rs2_address_in [4:0] $end
$var wire 32 o rs2_data_out [31:0] $end
$var wire 32 p rs1_data_out [31:0] $end
$var integer 32 q i [31:0] $end
$upscope $end
$scope module instruction_mem $end
$var wire 12 r address_in [11:0] $end
$var wire 1 ! clk_in $end
$var wire 32 s data_in [31:0] $end
$var wire 1 ) we_in $end
$var reg 32 t instruction_out [31:0] $end
$upscope $end
$upscope $end
$upscope $end
$enddefinitions $end
#0
$dumpvars
b1100000000001000010011 t
bz s
b0 r
bx q
b0 p
bx o
b11 n
b0 m
b11 l
b100 k
b1100000000000000000000 j
b100000000010 i
b100000000010 h
b100 g
b100 f
b100 e
b100 d
b11 c
b11 b
b1100000000001000010011 a
b0 `
bx _
bx ^
0]
0\
b11 [
b100 Z
b100000100000010 Y
b10000000 X
0W
b0 V
b10000000 U
b1100000000001000010011 T
b11 S
b0 R
b0 Q
0P
b11 O
b11 N
b0 M
b0 L
b0 K
b0 J
b11 I
b100 H
b100000000010 G
b0 F
b0 E
b0 D
b11 C
b0 B
bx A
b11 @
b11 ?
b100 >
b100 =
b100000000010 <
b1100000000000000000000 ;
x:
b10000000 9
b100000100000010 8
07
06
b0 5
x4
b11 3
b1100000000001000010011 2
01
b0 0
bx /
b100 .
b0 -
b11 ,
bx +
b11 *
z)
z(
bz '
bz &
bz %
bz $
bz #
0"
0!
$end
#5000
bz A
1!
#10000
0!
#15000
1!
#20000
0!
#25000
1!
#30000
0!
#35000
b100 F
b100 K
b0 /
b0 ^
b0 o
b100000 q
1!
1"
#40000
0!
#45000
b101000 C
b101000 l
b101000 *
b101000 @
b101000 O
b101000 [
b101000 ,
b101000 N
b101000 S
b101000 3
b101 .
b101 k
b1000 n
b10100000000000000000000000 ;
b10100000000000000000000000 j
b100101 =
b100101 g
b101000 ?
b101000 I
b101000 c
b101000 b
b100101 f
b101000 h
b100000100100 d
b10100000000000001010010011 2
b10100000000000001010010011 T
b10100000000000001010010011 a
b10100000000000001010010011 t
b1000 F
b101100 <
b101100 G
b101100 i
b100000101000 >
b100000101000 H
b100000101000 e
b1 r
b1000 K
b100 5
b100 J
b100 `
b100000 q
1!
#50000
0!
#55000
b101 C
b101 l
b101 *
b101 @
b101 O
b101 [
b101 ,
b101 N
b101 S
b101 3
b110 .
b110 k
b101 n
b10100000000000000000000 ;
b10100000000000000000000 j
b110 =
b110 g
b101 ?
b101 I
b101 c
b101 b
b110 f
b100000000100 h
b110 d
b10100000000001100010011 2
b10100000000001100010011 T
b10100000000001100010011 a
b10100000000001100010011 t
b100000001100 <
b100000001100 G
b100000001100 i
b1110 >
b1110 H
b1110 e
b10 r
b1100 F
b1000 5
b1000 J
b1000 `
b1100 K
b100000 q
1!
#60000
0!
#65000
b0 @
b0 O
b0 [
b0 C
b0 l
b0 ,
b0 N
b0 S
b0 *
b0 3
1]
b0 .
b0 k
b1000100000011 8
b1000100000011 Y
b1 Z
b110 n
b101 m
b10 Q
b10 V
b100000 9
b100000 U
b100000 X
b11000101010000000000000 ;
b11000101010000000000000 j
b0 =
b0 g
b110 ?
b110 I
b110 c
b110 b
b0 f
b101010000000000110 h
b0 d
b11000101010000000100011 2
b11000101010000000100011 T
b11000101010000000100011 a
b11000101010000000100011 t
b10000 F
b101010000000010010 <
b101010000000010010 G
b101010000000010010 i
b1100 >
b1100 H
b1100 e
b11 r
b10000 K
b1100 5
b1100 J
b1100 `
b100000 q
1!
#70000
0!
#75000
b1 C
b1 l
b1 *
b1 @
b1 O
b1 [
b1 ,
b1 N
b1 S
b1 3
0]
b110 .
b110 k
b100000100000010 8
b100000100000010 Y
b100 Z
b1 n
b110 m
b0 Q
b0 V
b10000000 9
b10000000 U
b10000000 X
b100110000000000000000 ;
b100110000000000000000 j
b110 =
b110 g
b1 ?
b1 I
b1 c
b1 b
b110 f
b110000100000000000 h
b110 d
b100110000001100010011 2
b100110000001100010011 T
b100110000001100010011 a
b100110000001100010011 t
b110000100000010000 <
b110000100000010000 G
b110000100000010000 i
b10110 >
b10110 H
b10110 e
b100 r
b10100 F
b10000 5
b10000 J
b10000 `
b10100 K
b100000 q
1!
#80000
0!
#85000
b10 C
b10 l
b10 *
b10 @
b10 O
b10 [
b10 ,
b10 N
b10 S
b10 3
b101 .
b101 k
b10 n
b101 m
b1000101000000000000000 ;
b1000101000000000000000 j
b101 =
b101 g
b10 ?
b10 I
b10 c
b10 b
b101 f
b101000000000000010 h
b100000000100 d
b1000101000001010010011 2
b1000101000001010010011 T
b1000101000001010010011 a
b1000101000001010010011 t
b11000 F
b101000000000010110 <
b101000000000010110 G
b101000000000010110 i
b100000011000 >
b100000011000 H
b100000011000 e
b101 r
b11000 K
b10100 5
b10100 J
b10100 `
b100000 q
1!
#90000
0!
#95000
b0 *
b0 @
b0 O
b0 [
b0 ,
b0 N
b0 S
b0 3
b1111 L
b1 B
b1 D
b1 .
b1 k
b100000001111100 8
b100000001111100 Y
b0 Z
bx C
bx l
b10101 n
b11111 m
b111 Q
1W
b111 V
b1000 9
b1000 U
b1000 X
b11111111010111111111000000000000 ;
b11111111010111111111000000000000 j
b11111111111111111111111111100000 =
b11111111111111111111111111100000 g
b11111111111111111111111111110101 ?
b11111111111111111111111111110101 I
b11111111111111111111111111110101 c
b111111110101 b
b111111100000 f
b111111111111111110100 h
b11111100000 d
b11111111010111111111000001101111 2
b11111111010111111111000001101111 T
b11111111010111111111000001101111 a
b11111111010111111111000001101111 t
b1000000000000000001100 <
b1000000000000000001100 G
b1000000000000000001100 i
b11111111000 >
b11111111000 H
b11111111000 e
b110 r
b1000000000000000001100 F
b11000 5
b11000 J
b11000 `
b11100 K
b100000 q
1!
#100000
0!
#105000
b0 L
1]
b0 B
b0 D
b0 .
b0 k
b1000100000011 8
b1000100000011 Y
b1 Z
b0 C
b0 l
b1000000000000000010000 F
b110 n
b101 m
b10 Q
0W
b10 V
b100000 9
b100000 U
b100000 X
b11000101010000000000000 ;
b11000101010000000000000 j
b0 =
b0 g
b110 ?
b110 I
b110 c
b110 b
b0 f
b101010000000000110 h
b0 d
b11000101010000000100011 2
b11000101010000000100011 T
b11000101010000000100011 a
b11000101010000000100011 t
b1000101010000000010010 <
b1000101010000000010010 G
b1000101010000000010010 i
b1000000000000000001100 >
b1000000000000000001100 H
b1000000000000000001100 e
b11 r
b1000000000000000010000 K
b1000000000000000001100 5
b1000000000000000001100 J
b1000000000000000001100 `
b100000 q
1!
#110000
0!
#115000
b1 C
b1 l
b1 *
b1 @
b1 O
b1 [
b1 ,
b1 N
b1 S
b1 3
0]
b110 .
b110 k
b100000100000010 8
b100000100000010 Y
b100 Z
b1 n
b110 m
b0 Q
b0 V
b10000000 9
b10000000 U
b10000000 X
b100110000000000000000 ;
b100110000000000000000 j
b110 =
b110 g
b1 ?
b1 I
b1 c
b1 b
b110 f
b110000100000000000 h
b110 d
b100110000001100010011 2
b100110000001100010011 T
b100110000001100010011 a
b100110000001100010011 t
b1000110000100000010000 <
b1000110000100000010000 G
b1000110000100000010000 i
b1000000000000000010110 >
b1000000000000000010110 H
b1000000000000000010110 e
b100 r
b1000000000000000010100 F
b1000000000000000010000 5
b1000000000000000010000 J
b1000000000000000010000 `
b1000000000000000010100 K
b100000 q
1!
#120000
0!
#125000
b10 C
b10 l
b10 *
b10 @
b10 O
b10 [
b10 ,
b10 N
b10 S
b10 3
b101 .
b101 k
b10 n
b101 m
b1000101000000000000000 ;
b1000101000000000000000 j
b101 =
b101 g
b10 ?
b10 I
b10 c
b10 b
b101 f
b101000000000000010 h
b100000000100 d
b1000101000001010010011 2
b1000101000001010010011 T
b1000101000001010010011 a
b1000101000001010010011 t
b1000000000000000011000 F
b1000101000000000010110 <
b1000101000000000010110 G
b1000101000000000010110 i
b1000000000100000011000 >
b1000000000100000011000 H
b1000000000100000011000 e
b101 r
b1000000000000000011000 K
b1000000000000000010100 5
b1000000000000000010100 J
b1000000000000000010100 `
b100000 q
1!
#130000
0!
#135000
b0 *
b0 @
b0 O
b0 [
b0 ,
b0 N
b0 S
b0 3
b1111 L
b1 B
b1 D
b1 .
b1 k
b100000001111100 8
b100000001111100 Y
b0 Z
bx C
bx l
b10101 n
b11111 m
b111 Q
1W
b111 V
b1000 9
b1000 U
b1000 X
b11111111010111111111000000000000 ;
b11111111010111111111000000000000 j
b11111111111111111111111111100000 =
b11111111111111111111111111100000 g
b11111111111111111111111111110101 ?
b11111111111111111111111111110101 I
b11111111111111111111111111110101 c
b111111110101 b
b111111100000 f
b111111111111111110100 h
b11111100000 d
b11111111010111111111000001101111 2
b11111111010111111111000001101111 T
b11111111010111111111000001101111 a
b11111111010111111111000001101111 t
b10000000000000000001100 <
b10000000000000000001100 G
b10000000000000000001100 i
b1000000000011111111000 >
b1000000000011111111000 H
b1000000000011111111000 e
b110 r
b10000000000000000001100 F
b1000000000000000011000 5
b1000000000000000011000 J
b1000000000000000011000 `
b1000000000000000011100 K
b100000 q
1!
#140000
0!
#145000
b0 L
1]
b0 B
b0 D
b0 .
b0 k
b1000100000011 8
b1000100000011 Y
b1 Z
b0 C
b0 l
b10000000000000000010000 F
b110 n
b101 m
b10 Q
0W
b10 V
b100000 9
b100000 U
b100000 X
b11000101010000000000000 ;
b11000101010000000000000 j
b0 =
b0 g
b110 ?
b110 I
b110 c
b110 b
b0 f
b101010000000000110 h
b0 d
b11000101010000000100011 2
b11000101010000000100011 T
b11000101010000000100011 a
b11000101010000000100011 t
b10000101010000000010010 <
b10000101010000000010010 G
b10000101010000000010010 i
b10000000000000000001100 >
b10000000000000000001100 H
b10000000000000000001100 e
b11 r
b10000000000000000010000 K
b10000000000000000001100 5
b10000000000000000001100 J
b10000000000000000001100 `
b100000 q
1!
#150000
0!
#155000
b1 C
b1 l
b1 *
b1 @
b1 O
b1 [
b1 ,
b1 N
b1 S
b1 3
0]
b110 .
b110 k
b100000100000010 8
b100000100000010 Y
b100 Z
b1 n
b110 m
b0 Q
b0 V
b10000000 9
b10000000 U
b10000000 X
b100110000000000000000 ;
b100110000000000000000 j
b110 =
b110 g
b1 ?
b1 I
b1 c
b1 b
b110 f
b110000100000000000 h
b110 d
b100110000001100010011 2
b100110000001100010011 T
b100110000001100010011 a
b100110000001100010011 t
b10000110000100000010000 <
b10000110000100000010000 G
b10000110000100000010000 i
b10000000000000000010110 >
b10000000000000000010110 H
b10000000000000000010110 e
b100 r
b10000000000000000010100 F
b10000000000000000010000 5
b10000000000000000010000 J
b10000000000000000010000 `
b10000000000000000010100 K
b100000 q
1!
#160000
0!
#165000
b10 C
b10 l
b10 *
b10 @
b10 O
b10 [
b10 ,
b10 N
b10 S
b10 3
b101 .
b101 k
b10 n
b101 m
b1000101000000000000000 ;
b1000101000000000000000 j
b101 =
b101 g
b10 ?
b10 I
b10 c
b10 b
b101 f
b101000000000000010 h
b100000000100 d
b1000101000001010010011 2
b1000101000001010010011 T
b1000101000001010010011 a
b1000101000001010010011 t
b10000000000000000011000 F
b10000101000000000010110 <
b10000101000000000010110 G
b10000101000000000010110 i
b10000000000100000011000 >
b10000000000100000011000 H
b10000000000100000011000 e
b101 r
b10000000000000000011000 K
b10000000000000000010100 5
b10000000000000000010100 J
b10000000000000000010100 `
b100000 q
1!
#170000
0!
#175000
b0 *
b0 @
b0 O
b0 [
b0 ,
b0 N
b0 S
b0 3
b1111 L
b1 B
b1 D
b1 .
b1 k
b100000001111100 8
b100000001111100 Y
b0 Z
bx C
bx l
b10101 n
b11111 m
b111 Q
1W
b111 V
b1000 9
b1000 U
b1000 X
b11111111010111111111000000000000 ;
b11111111010111111111000000000000 j
b11111111111111111111111111100000 =
b11111111111111111111111111100000 g
b11111111111111111111111111110101 ?
b11111111111111111111111111110101 I
b11111111111111111111111111110101 c
b111111110101 b
b111111100000 f
b111111111111111110100 h
b11111100000 d
b11111111010111111111000001101111 2
b11111111010111111111000001101111 T
b11111111010111111111000001101111 a
b11111111010111111111000001101111 t
b11000000000000000001100 <
b11000000000000000001100 G
b11000000000000000001100 i
b10000000000011111111000 >
b10000000000011111111000 H
b10000000000011111111000 e
b110 r
b11000000000000000001100 F
b10000000000000000011000 5
b10000000000000000011000 J
b10000000000000000011000 `
b10000000000000000011100 K
b100000 q
1!
#180000
0!
#185000
b0 L
1]
b0 B
b0 D
b0 .
b0 k
b1000100000011 8
b1000100000011 Y
b1 Z
b0 C
b0 l
b11000000000000000010000 F
b110 n
b101 m
b10 Q
0W
b10 V
b100000 9
b100000 U
b100000 X
b11000101010000000000000 ;
b11000101010000000000000 j
b0 =
b0 g
b110 ?
b110 I
b110 c
b110 b
b0 f
b101010000000000110 h
b0 d
b11000101010000000100011 2
b11000101010000000100011 T
b11000101010000000100011 a
b11000101010000000100011 t
b11000101010000000010010 <
b11000101010000000010010 G
b11000101010000000010010 i
b11000000000000000001100 >
b11000000000000000001100 H
b11000000000000000001100 e
b11 r
b11000000000000000010000 K
b11000000000000000001100 5
b11000000000000000001100 J
b11000000000000000001100 `
b100000 q
1!
#190000
0!
#195000
b1 C
b1 l
b1 *
b1 @
b1 O
b1 [
b1 ,
b1 N
b1 S
b1 3
0]
b110 .
b110 k
b100000100000010 8
b100000100000010 Y
b100 Z
b1 n
b110 m
b0 Q
b0 V
b10000000 9
b10000000 U
b10000000 X
b100110000000000000000 ;
b100110000000000000000 j
b110 =
b110 g
b1 ?
b1 I
b1 c
b1 b
b110 f
b110000100000000000 h
b110 d
b100110000001100010011 2
b100110000001100010011 T
b100110000001100010011 a
b100110000001100010011 t
b11000110000100000010000 <
b11000110000100000010000 G
b11000110000100000010000 i
b11000000000000000010110 >
b11000000000000000010110 H
b11000000000000000010110 e
b100 r
b11000000000000000010100 F
b11000000000000000010000 5
b11000000000000000010000 J
b11000000000000000010000 `
b11000000000000000010100 K
b100000 q
1!
#200000
0!
#205000
b10 C
b10 l
b10 *
b10 @
b10 O
b10 [
b10 ,
b10 N
b10 S
b10 3
b101 .
b101 k
b10 n
b101 m
b1000101000000000000000 ;
b1000101000000000000000 j
b101 =
b101 g
b10 ?
b10 I
b10 c
b10 b
b101 f
b101000000000000010 h
b100000000100 d
b1000101000001010010011 2
b1000101000001010010011 T
b1000101000001010010011 a
b1000101000001010010011 t
b11000000000000000011000 F
b11000101000000000010110 <
b11000101000000000010110 G
b11000101000000000010110 i
b11000000000100000011000 >
b11000000000100000011000 H
b11000000000100000011000 e
b101 r
b11000000000000000011000 K
b11000000000000000010100 5
b11000000000000000010100 J
b11000000000000000010100 `
b100000 q
1!
#210000
0!
#215000
b0 *
b0 @
b0 O
b0 [
b0 ,
b0 N
b0 S
b0 3
b1111 L
b1 B
b1 D
b1 .
b1 k
b100000001111100 8
b100000001111100 Y
b0 Z
bx C
bx l
b10101 n
b11111 m
b111 Q
1W
b111 V
b1000 9
b1000 U
b1000 X
b11111111010111111111000000000000 ;
b11111111010111111111000000000000 j
b11111111111111111111111111100000 =
b11111111111111111111111111100000 g
b11111111111111111111111111110101 ?
b11111111111111111111111111110101 I
b11111111111111111111111111110101 c
b111111110101 b
b111111100000 f
b111111111111111110100 h
b11111100000 d
b11111111010111111111000001101111 2
b11111111010111111111000001101111 T
b11111111010111111111000001101111 a
b11111111010111111111000001101111 t
b100000000000000000001100 <
b100000000000000000001100 G
b100000000000000000001100 i
b11000000000011111111000 >
b11000000000011111111000 H
b11000000000011111111000 e
b110 r
b100000000000000000001100 F
b11000000000000000011000 5
b11000000000000000011000 J
b11000000000000000011000 `
b11000000000000000011100 K
b100000 q
1!
#220000
0!
#225000
b0 L
1]
b0 B
b0 D
b0 .
b0 k
b1000100000011 8
b1000100000011 Y
b1 Z
b0 C
b0 l
b100000000000000000010000 F
b110 n
b101 m
b10 Q
0W
b10 V
b100000 9
b100000 U
b100000 X
b11000101010000000000000 ;
b11000101010000000000000 j
b0 =
b0 g
b110 ?
b110 I
b110 c
b110 b
b0 f
b101010000000000110 h
b0 d
b11000101010000000100011 2
b11000101010000000100011 T
b11000101010000000100011 a
b11000101010000000100011 t
b100000101010000000010010 <
b100000101010000000010010 G
b100000101010000000010010 i
b100000000000000000001100 >
b100000000000000000001100 H
b100000000000000000001100 e
b11 r
b100000000000000000010000 K
b100000000000000000001100 5
b100000000000000000001100 J
b100000000000000000001100 `
b100000 q
1!
#230000
0!
#235000
b1 C
b1 l
b1 *
b1 @
b1 O
b1 [
b1 ,
b1 N
b1 S
b1 3
0]
b110 .
b110 k
b100000100000010 8
b100000100000010 Y
b100 Z
b1 n
b110 m
b0 Q
b0 V
b10000000 9
b10000000 U
b10000000 X
b100110000000000000000 ;
b100110000000000000000 j
b110 =
b110 g
b1 ?
b1 I
b1 c
b1 b
b110 f
b110000100000000000 h
b110 d
b100110000001100010011 2
b100110000001100010011 T
b100110000001100010011 a
b100110000001100010011 t
b100000110000100000010000 <
b100000110000100000010000 G
b100000110000100000010000 i
b100000000000000000010110 >
b100000000000000000010110 H
b100000000000000000010110 e
b100 r
b100000000000000000010100 F
b100000000000000000010000 5
b100000000000000000010000 J
b100000000000000000010000 `
b100000000000000000010100 K
b100000 q
1!
#240000
0!
#245000
b10 C
b10 l
b10 *
b10 @
b10 O
b10 [
b10 ,
b10 N
b10 S
b10 3
b101 .
b101 k
b10 n
b101 m
b1000101000000000000000 ;
b1000101000000000000000 j
b101 =
b101 g
b10 ?
b10 I
b10 c
b10 b
b101 f
b101000000000000010 h
b100000000100 d
b1000101000001010010011 2
b1000101000001010010011 T
b1000101000001010010011 a
b1000101000001010010011 t
b100000000000000000011000 F
b100000101000000000010110 <
b100000101000000000010110 G
b100000101000000000010110 i
b100000000000100000011000 >
b100000000000100000011000 H
b100000000000100000011000 e
b101 r
b100000000000000000011000 K
b100000000000000000010100 5
b100000000000000000010100 J
b100000000000000000010100 `
b100000 q
1!
#250000
0!
#255000
b0 *
b0 @
b0 O
b0 [
b0 ,
b0 N
b0 S
b0 3
b1111 L
b1 B
b1 D
b1 .
b1 k
b100000001111100 8
b100000001111100 Y
b0 Z
bx C
bx l
b10101 n
b11111 m
b111 Q
1W
b111 V
b1000 9
b1000 U
b1000 X
b11111111010111111111000000000000 ;
b11111111010111111111000000000000 j
b11111111111111111111111111100000 =
b11111111111111111111111111100000 g
b11111111111111111111111111110101 ?
b11111111111111111111111111110101 I
b11111111111111111111111111110101 c
b111111110101 b
b111111100000 f
b111111111111111110100 h
b11111100000 d
b11111111010111111111000001101111 2
b11111111010111111111000001101111 T
b11111111010111111111000001101111 a
b11111111010111111111000001101111 t
b101000000000000000001100 <
b101000000000000000001100 G
b101000000000000000001100 i
b100000000000011111111000 >
b100000000000011111111000 H
b100000000000011111111000 e
b110 r
b101000000000000000001100 F
b100000000000000000011000 5
b100000000000000000011000 J
b100000000000000000011000 `
b100000000000000000011100 K
b100000 q
1!
#260000
0!
#265000
b0 L
1]
b0 B
b0 D
b0 .
b0 k
b1000100000011 8
b1000100000011 Y
b1 Z
b0 C
b0 l
b101000000000000000010000 F
b110 n
b101 m
b10 Q
0W
b10 V
b100000 9
b100000 U
b100000 X
b11000101010000000000000 ;
b11000101010000000000000 j
b0 =
b0 g
b110 ?
b110 I
b110 c
b110 b
b0 f
b101010000000000110 h
b0 d
b11000101010000000100011 2
b11000101010000000100011 T
b11000101010000000100011 a
b11000101010000000100011 t
b101000101010000000010010 <
b101000101010000000010010 G
b101000101010000000010010 i
b101000000000000000001100 >
b101000000000000000001100 H
b101000000000000000001100 e
b11 r
b101000000000000000010000 K
b101000000000000000001100 5
b101000000000000000001100 J
b101000000000000000001100 `
b100000 q
1!
#270000
0!
#275000
b1 C
b1 l
b1 *
b1 @
b1 O
b1 [
b1 ,
b1 N
b1 S
b1 3
0]
b110 .
b110 k
b100000100000010 8
b100000100000010 Y
b100 Z
b1 n
b110 m
b0 Q
b0 V
b10000000 9
b10000000 U
b10000000 X
b100110000000000000000 ;
b100110000000000000000 j
b110 =
b110 g
b1 ?
b1 I
b1 c
b1 b
b110 f
b110000100000000000 h
b110 d
b100110000001100010011 2
b100110000001100010011 T
b100110000001100010011 a
b100110000001100010011 t
b101000110000100000010000 <
b101000110000100000010000 G
b101000110000100000010000 i
b101000000000000000010110 >
b101000000000000000010110 H
b101000000000000000010110 e
b100 r
b101000000000000000010100 F
b101000000000000000010000 5
b101000000000000000010000 J
b101000000000000000010000 `
b101000000000000000010100 K
b100000 q
1!
#280000
0!
#285000
b10 C
b10 l
b10 *
b10 @
b10 O
b10 [
b10 ,
b10 N
b10 S
b10 3
b101 .
b101 k
b10 n
b101 m
b1000101000000000000000 ;
b1000101000000000000000 j
b101 =
b101 g
b10 ?
b10 I
b10 c
b10 b
b101 f
b101000000000000010 h
b100000000100 d
b1000101000001010010011 2
b1000101000001010010011 T
b1000101000001010010011 a
b1000101000001010010011 t
b101000000000000000011000 F
b101000101000000000010110 <
b101000101000000000010110 G
b101000101000000000010110 i
b101000000000100000011000 >
b101000000000100000011000 H
b101000000000100000011000 e
b101 r
b101000000000000000011000 K
b101000000000000000010100 5
b101000000000000000010100 J
b101000000000000000010100 `
b100000 q
1!
#290000
0!
#295000
b0 *
b0 @
b0 O
b0 [
b0 ,
b0 N
b0 S
b0 3
b1111 L
b1 B
b1 D
b1 .
b1 k
b100000001111100 8
b100000001111100 Y
b0 Z
bx C
bx l
b10101 n
b11111 m
b111 Q
1W
b111 V
b1000 9
b1000 U
b1000 X
b11111111010111111111000000000000 ;
b11111111010111111111000000000000 j
b11111111111111111111111111100000 =
b11111111111111111111111111100000 g
b11111111111111111111111111110101 ?
b11111111111111111111111111110101 I
b11111111111111111111111111110101 c
b111111110101 b
b111111100000 f
b111111111111111110100 h
b11111100000 d
b11111111010111111111000001101111 2
b11111111010111111111000001101111 T
b11111111010111111111000001101111 a
b11111111010111111111000001101111 t
b110000000000000000001100 <
b110000000000000000001100 G
b110000000000000000001100 i
b101000000000011111111000 >
b101000000000011111111000 H
b101000000000011111111000 e
b110 r
b110000000000000000001100 F
b101000000000000000011000 5
b101000000000000000011000 J
b101000000000000000011000 `
b101000000000000000011100 K
b100000 q
1!
#300000
0!
#305000
b0 L
1]
b0 B
b0 D
b0 .
b0 k
b1000100000011 8
b1000100000011 Y
b1 Z
b0 C
b0 l
b110000000000000000010000 F
b110 n
b101 m
b10 Q
0W
b10 V
b100000 9
b100000 U
b100000 X
b11000101010000000000000 ;
b11000101010000000000000 j
b0 =
b0 g
b110 ?
b110 I
b110 c
b110 b
b0 f
b101010000000000110 h
b0 d
b11000101010000000100011 2
b11000101010000000100011 T
b11000101010000000100011 a
b11000101010000000100011 t
b110000101010000000010010 <
b110000101010000000010010 G
b110000101010000000010010 i
b110000000000000000001100 >
b110000000000000000001100 H
b110000000000000000001100 e
b11 r
b110000000000000000010000 K
b110000000000000000001100 5
b110000000000000000001100 J
b110000000000000000001100 `
b100000 q
1!
#310000
0!
#315000
b1 C
b1 l
b1 *
b1 @
b1 O
b1 [
b1 ,
b1 N
b1 S
b1 3
0]
b110 .
b110 k
b100000100000010 8
b100000100000010 Y
b100 Z
b1 n
b110 m
b0 Q
b0 V
b10000000 9
b10000000 U
b10000000 X
b100110000000000000000 ;
b100110000000000000000 j
b110 =
b110 g
b1 ?
b1 I
b1 c
b1 b
b110 f
b110000100000000000 h
b110 d
b100110000001100010011 2
b100110000001100010011 T
b100110000001100010011 a
b100110000001100010011 t
b110000110000100000010000 <
b110000110000100000010000 G
b110000110000100000010000 i
b110000000000000000010110 >
b110000000000000000010110 H
b110000000000000000010110 e
b100 r
b110000000000000000010100 F
b110000000000000000010000 5
b110000000000000000010000 J
b110000000000000000010000 `
b110000000000000000010100 K
b100000 q
1!
#320000
0!
#325000
b10 C
b10 l
b10 *
b10 @
b10 O
b10 [
b10 ,
b10 N
b10 S
b10 3
b101 .
b101 k
b10 n
b101 m
b1000101000000000000000 ;
b1000101000000000000000 j
b101 =
b101 g
b10 ?
b10 I
b10 c
b10 b
b101 f
b101000000000000010 h
b100000000100 d
b1000101000001010010011 2
b1000101000001010010011 T
b1000101000001010010011 a
b1000101000001010010011 t
b110000000000000000011000 F
b110000101000000000010110 <
b110000101000000000010110 G
b110000101000000000010110 i
b110000000000100000011000 >
b110000000000100000011000 H
b110000000000100000011000 e
b101 r
b110000000000000000011000 K
b110000000000000000010100 5
b110000000000000000010100 J
b110000000000000000010100 `
b100000 q
1!
#330000
0!
#335000
b0 *
b0 @
b0 O
b0 [
b0 ,
b0 N
b0 S
b0 3
b1111 L
b1 B
b1 D
b1 .
b1 k
b100000001111100 8
b100000001111100 Y
b0 Z
bx C
bx l
b10101 n
b11111 m
b111 Q
1W
b111 V
b1000 9
b1000 U
b1000 X
b11111111010111111111000000000000 ;
b11111111010111111111000000000000 j
b11111111111111111111111111100000 =
b11111111111111111111111111100000 g
b11111111111111111111111111110101 ?
b11111111111111111111111111110101 I
b11111111111111111111111111110101 c
b111111110101 b
b111111100000 f
b111111111111111110100 h
b11111100000 d
b11111111010111111111000001101111 2
b11111111010111111111000001101111 T
b11111111010111111111000001101111 a
b11111111010111111111000001101111 t
b111000000000000000001100 <
b111000000000000000001100 G
b111000000000000000001100 i
b110000000000011111111000 >
b110000000000011111111000 H
b110000000000011111111000 e
b110 r
b111000000000000000001100 F
b110000000000000000011000 5
b110000000000000000011000 J
b110000000000000000011000 `
b110000000000000000011100 K
b100000 q
1!
#340000
0!
