verif/wave.vcd
$date
	Tue Feb 25 12:12:14 2025
$end
$version
	Icarus Verilog
$end
$timescale
	1ps
$end
$scope module rv32i_core_tb $end
$var reg 1 ! clk $end
$var reg 1 " reset_n $end
$scope module uut $end
$var wire 32 # OUT_T [31:0] $end
$var wire 32 $ PC [31:0] $end
$var wire 1 ! clk $end
$var wire 32 % csr_data_out [31:0] $end
$var wire 32 & data_in [31:0] $end
$var wire 1 ' mem_ready $end
$var wire 32 ( offset_adder [31:0] $end
$var wire 1 " reset_n $end
$var wire 1 ) we $end
$var wire 32 * write_back [31:0] $end
$var wire 32 + write_adder [31:0] $end
$var wire 32 , reg_2 [31:0] $end
$var wire 32 - reg_1 [31:0] $end
$var wire 32 . read_data [31:0] $end
$var wire 5 / rd [4:0] $end
$var wire 32 0 operand2 [31:0] $end
$var wire 32 1 operand1 [31:0] $end
$var wire 1 2 mret_in $end
$var wire 4 3 mem_wstrb [3:0] $end
$var wire 32 4 mem_wdata [31:0] $end
$var wire 1 5 mem_valid $end
$var wire 32 6 mem_rdata [31:0] $end
$var wire 1 7 mem_instr_resp $end
$var wire 1 8 mem_instr $end
$var wire 1 9 mem_data_rd_resp $end
$var wire 32 : mem_addr [31:0] $end
$var wire 32 ; instruction_fetch [31:0] $end
$var wire 32 < inst_out [31:0] $end
$var wire 32 = immediate_data [31:0] $end
$var wire 1 > illegal_instruction_in $end
$var wire 1 ? fetch_valid $end
$var wire 1 @ fetch_ready $end
$var wire 32 A fetch_address [31:0] $end
$var wire 1 B ecall_in $end
$var wire 1 C ebreak_in $end
$var wire 15 D control_unit_out [14:0] $end
$var wire 9 E contrl_decoder [8:0] $end
$var wire 1 F branch_true $end
$var wire 32 G U_type [31:0] $end
$var wire 32 H UJ_type [31:0] $end
$var wire 32 I S_type [31:0] $end
$var wire 32 J SB_type [31:0] $end
$var wire 32 K I_type [31:0] $end
$var wire 32 L ALU_OUTPUT [31:0] $end
$var reg 32 M address_q [31:0] $end
$var reg 32 N fetch_address_q [31:0] $end
$var reg 32 O instr_q [31:0] $end
$var reg 2 P pc_sel [1:0] $end
$var reg 32 Q wb [31:0] $end
$scope module fetch_i $end
$var wire 1 ! clk_in $end
$var wire 32 R fetch_address_o [31:0] $end
$var wire 2 S pc_sel [1:0] $end
$var wire 1 " reset_n $end
$var wire 32 T rs1_in [31:0] $end
$var wire 1 @ fetch_ready_o $end
$var wire 1 F branch_true $end
$var wire 32 U UJ_immediate_in [31:0] $end
$var wire 32 V SB_immediate_in [31:0] $end
$var wire 32 W I_immediate_in [31:0] $end
$var reg 32 X fetch_address [31:0] $end
$var reg 1 ? fetch_valid_o $end
$var reg 32 Y pcplus4 [31:0] $end
$upscope $end
$scope module i_ALU $end
$var wire 4 Z alu_operand_in [3:0] $end
$var wire 32 [ operand1_in [31:0] $end
$var wire 32 \ operand2_in [31:0] $end
$var reg 32 ] alu_result_out [31:0] $end
$upscope $end
$scope module i_arb $end
$var wire 32 ^ mem_data_rd_addr [31:0] $end
$var wire 32 _ mem_data_rd_data_i [31:0] $end
$var wire 1 ` mem_data_rd_valid $end
$var wire 32 a mem_data_wr_addr [31:0] $end
$var wire 1 b mem_data_wr_valid $end
$var wire 32 c mem_instr_addr [31:0] $end
$var wire 1 d mem_instr_ready_o $end
$var wire 1 ? mem_instr_valid $end
$var wire 32 e mem_data_wr_data [31:0] $end
$var reg 32 f mem_data_addr_o [31:0] $end
$var reg 1 g mem_data_rd_ready $end
$var reg 1 9 mem_data_rd_resp $end
$var reg 32 h mem_data_resp [31:0] $end
$var reg 32 i mem_data_wr_data_o [31:0] $end
$var reg 1 j mem_data_wr_ready $end
$var reg 1 k mem_data_wr_resp $end
$var reg 4 l mem_data_wr_strb_o [3:0] $end
$var reg 32 m mem_instr_data [31:0] $end
$var reg 1 8 mem_instr_o $end
$var reg 1 @ mem_instr_ready $end
$var reg 1 7 mem_instr_resp $end
$var reg 1 5 mem_instr_valid_o $end
$upscope $end
$scope module i_branch $end
$var wire 1 n branch_en_in $end
$var wire 3 o function_3_in [2:0] $end
$var wire 32 p operand1_in [31:0] $end
$var wire 32 q operand2_in [31:0] $end
$var reg 1 F branch_taken_out $end
$upscope $end
$scope module i_control_decoder $end
$var wire 32 r opcode_in [31:0] $end
$var reg 9 s decoded_out [8:0] $end
$var reg 1 C ebreak_out $end
$var reg 1 B ecall_out $end
$var reg 1 > illegal_ins_out $end
$var reg 1 2 mret_out $end
$upscope $end
$scope module i_control_unit $end
$var wire 3 t function_3_in [2:0] $end
$var wire 1 u function_7_in $end
$var wire 9 v type_decode_in [8:0] $end
$var reg 15 w control_unit_out [14:0] $end
$var reg 3 x sel [2:0] $end
$upscope $end
$scope module i_data_mem $end
$var wire 32 y address_in [31:0] $end
$var wire 1 ! clk_in $end
$var wire 1 z load_en_in $end
$var wire 32 { store_data_in [31:0] $end
$var wire 1 | store_en_in $end
$var reg 32 } data_out [31:0] $end
$upscope $end
$scope module i_immediate $end
$var wire 32 ~ instruction_in [31:0] $end
$var wire 32 !" pc_in [31:0] $end
$var reg 12 "" I_type [11:0] $end
$var reg 32 #" I_type_imm_out [31:0] $end
$var reg 12 $" SB_type [11:0] $end
$var reg 32 %" SB_type_imm_out [31:0] $end
$var reg 12 &" S_type [11:0] $end
$var reg 32 '" S_type_imm_out [31:0] $end
$var reg 21 (" UJ_type [20:0] $end
$var reg 32 )" UJ_type_imm_out [31:0] $end
$var reg 32 *" U_type_imm_out [31:0] $end
$upscope $end
$scope module i_reg_file $end
$var wire 1 ! clk_in $end
$var wire 5 +" destination_register_in [4:0] $end
$var wire 32 ," input_data_in [31:0] $end
$var wire 1 " reset_in $end
$var wire 5 -" rs1_address_in [4:0] $end
$var wire 5 ." rs2_address_in [4:0] $end
$var wire 32 /" rs2_data_out [31:0] $end
$var wire 32 0" rs1_data_out [31:0] $end
$var integer 32 1" i [31:0] $end
$upscope $end
$scope module instruction_mem $end
$var wire 12 2" address_in [11:0] $end
$var wire 1 ! clk_in $end
$var wire 32 3" data_in [31:0] $end
$var wire 1 ) we_in $end
$var reg 32 4" instruction_out [31:0] $end
$upscope $end
$upscope $end
$upscope $end
$enddefinitions $end
#0
$dumpvars
b1100000000001000010011 4"
bz 3"
b0 2"
bx 1"
b0 0"
b0 /"
b0 ."
b0 -"
b0 ,"
b0 +"
b0 *"
b0 )"
b0 ("
b0 '"
b0 &"
b0 %"
b0 $"
b0 #"
b0 ""
b0 !"
b0 ~
bx }
0|
b0 {
0z
b0 y
b0 x
b0xxxx00 w
b0 v
0u
b0 t
b0 s
b0 r
b0 q
b0 p
b0 o
0n
bx m
b0 l
0k
0j
b0 i
b0 h
0g
b0 f
b0 e
1d
b0 c
0b
b0 a
0`
bx _
b0 ^
b0 ]
b0 \
b0 [
bx Z
b0 Y
b0 X
b0 W
b0 V
b0 U
b0 T
b0 S
b0 R
b0 Q
b0 P
b0 O
b0 N
bx M
b0 L
b0 K
b0 J
b0 I
b0 H
b0 G
xF
b0 E
b0xxxx00 D
0C
0B
b0 A
0@
0?
x>
b0 =
bx <
b1100000000001000010011 ;
b0 :
09
08
07
bx 6
05
b0 4
b0 3
02
b0 1
b0 0
b0 /
bx .
b0 -
b0 ,
b0 +
b0 *
z)
bz (
z'
bz &
bz %
bz $
bz #
0"
0!
$end
#5000
bz M
1!
#10000
0!
#15000
1!
#20000
0!
#25000
1!
#30000
0!
#35000
b1100000000001000010011 <
b1100000000001000010011 m
b1100000000001000010011 6
b1100000000001000010011 _
1z
17
18
15
1@
b0 M
b100000 1"
1?
1!
1"
#40000
0!
#45000
b11 Q
b11 ,"
b11 *
b11 L
b11 ]
b11 ^
b11 a
b11 ,
b11 \
b11 q
b11 =
b10100000000000001010010011 <
b10100000000000001010010011 m
b10100000000000001010010011 6
b10100000000000001010010011 _
b10100000000000001010010011 ;
b10100000000000001010010011 4"
b0 Z
b1 2"
b100 /
b100 +"
b100000100000010 D
b100000100000010 w
b100 x
b100 :
b100 f
b100 y
17
15
18
1@
b11 ."
b10000000 E
b10000000 s
b10000000 v
b1100000000000000000000 G
b1100000000000000000000 *"
b100000000010 H
b100000000010 U
b100000000010 )"
b100 J
b100 V
b100 %"
b100 I
b100 '"
b11 K
b11 W
b11 #"
b11 ""
b100 &"
b100000000010 ("
b100 $"
b100 A
b100 R
b100 c
b100 X
b1100000000001000010011 O
b1100000000001000010011 r
b1100000000001000010011 ~
b100 Y
b100000 1"
1!
#50000
0!
#55000
b101000 Q
b101000 ,"
b101000 *
b10100000000001100010011 <
b10100000000001100010011 m
b101000 L
b101000 ]
b101000 ^
b101000 a
b10100000000001100010011 6
b10100000000001100010011 _
b101000 ,
b101000 \
b101000 q
b10100000000001100010011 ;
b10100000000001100010011 4"
b101000 =
b10 2"
b1000 :
b1000 f
b1000 y
17
15
18
1@
b101 /
b101 +"
b1000 A
b1000 R
b1000 c
b1000 X
b1000 ."
b10100000000000000000000000 G
b10100000000000000000000000 *"
b101100 H
b101100 U
b101100 )"
b100000101000 J
b100000101000 V
b100000101000 %"
b100101 I
b100101 '"
b101000 K
b101000 W
b101000 #"
b101000 ""
b100101 &"
b101000 ("
b100000100100 $"
b1000 Y
b100 N
b100 !"
b10100000000000001010010011 O
b10100000000000001010010011 r
b10100000000000001010010011 ~
b100000 1"
1!
#60000
0!
#65000
b101 Q
b101 ,"
b101 *
b101 L
b101 ]
b101 ^
b101 a
b11000101010000000100011 <
b11000101010000000100011 m
b101 ,
b101 \
b101 q
b11000101010000000100011 6
b11000101010000000100011 _
b101 =
b11000101010000000100011 ;
b11000101010000000100011 4"
b11 2"
b110 /
b110 +"
b1100 :
b1100 f
b1100 y
17
15
18
1@
b101 ."
b10100000000000000000000 G
b10100000000000000000000 *"
b100000001100 H
b100000001100 U
b100000001100 )"
b1110 J
b1110 V
b1110 %"
b110 I
b110 '"
b101 K
b101 W
b101 #"
b101 ""
b110 &"
b100000000100 ("
b110 $"
b1100 A
b1100 R
b1100 c
b1100 X
b1000 N
b1000 !"
b10100000000001100010011 O
b10100000000001100010011 r
b10100000000001100010011 ~
b1100 Y
b100000 1"
1!
#70000
0!
#75000
b0 L
b0 ]
b0 ^
b0 a
0z
bx 6
bx _
b0 Q
b0 ,"
b0 ,
b0 \
b0 q
b1100000000001000010011 ;
b1100000000001000010011 4"
1k
b1111 3
b1111 l
1j
b0 *
b0 =
b0 2"
1b
b0 :
b0 f
b0 y
07
05
08
0@
b0 /
b0 +"
b1000100000011 D
b1000100000011 w
b1 x
b10000 A
b10000 R
b10000 c
b10000 X
b10 t
b10 o
b101 -"
b110 ."
b100000 E
b100000 s
b100000 v
b11000101010000000000000 G
b11000101010000000000000 *"
b101010000000010010 H
b101010000000010010 U
b101010000000010010 )"
b1100 J
b1100 V
b1100 %"
b0 I
b0 '"
b110 K
b110 W
b110 #"
b110 ""
b0 &"
b101010000000000110 ("
b0 $"
b10000 Y
b1100 N
b1100 !"
b11000101010000000100011 O
b11000101010000000100011 r
b11000101010000000100011 ~
b100000 1"
1!
#80000
0!
#85000
b100110000001100010011 ;
b100110000001100010011 4"
b100 2"
b100110000001100010011 6
b100110000001100010011 _
1z
17
b100110000001100010011 <
b100110000001100010011 m
b10000 :
b10000 f
b10000 y
18
15
1@
0k
b0 3
b0 l
0j
0b
b0 D
b0 w
b0 x
b0 t
b0 o
b0 -"
b0 ."
b0 E
b0 s
b0 v
b0 G
b0 *"
b0 H
b0 U
b0 )"
b0 J
b0 V
b0 %"
b0 K
b0 W
b0 #"
b0 ""
b0 ("
b0 N
b0 !"
b0 O
b0 r
b0 ~
b100000 1"
1!
#90000
0!
#95000
b1 Q
b1 ,"
b1 *
b1 L
b1 ]
b1 ^
b1 a
b1 ,
b1 \
b1 q
b1000101000001010010011 <
b1000101000001010010011 m
b1 =
b1000101000001010010011 6
b1000101000001010010011 _
b1000101000001010010011 ;
b1000101000001010010011 4"
b101 2"
b10100 :
b10100 f
b10100 y
17
15
18
1@
b110 /
b110 +"
b100000100000010 D
b100000100000010 w
b100 x
b10100 A
b10100 R
b10100 c
b10100 X
b110 -"
b1 ."
b10000000 E
b10000000 s
b10000000 v
b100110000000000000000 G
b100110000000000000000 *"
b110000100000010000 H
b110000100000010000 U
b110000100000010000 )"
b10110 J
b10110 V
b10110 %"
b110 I
b110 '"
b1 K
b1 W
b1 #"
b1 ""
b110 &"
b110000100000000000 ("
b110 $"
b10100 Y
b10000 N
b10000 !"
b100110000001100010011 O
b100110000001100010011 r
b100110000001100010011 ~
b100000 1"
1!
#100000
0!
#105000
b10 Q
b10 ,"
b10 *
b10 L
b10 ]
b10 ^
b10 a
b11111111010111111111000001101111 <
b11111111010111111111000001101111 m
b10 ,
b10 \
b10 q
b11111111010111111111000001101111 6
b11111111010111111111000001101111 _
b10 =
b11111111010111111111000001101111 ;
b11111111010111111111000001101111 4"
b110 2"
b101 /
b101 +"
b11000 :
b11000 f
b11000 y
17
15
18
1@
b101 -"
b10 ."
b1000101000000000000000 G
b1000101000000000000000 *"
b101000000000010110 H
b101000000000010110 U
b101000000000010110 )"
b100000011000 J
b100000011000 V
b100000011000 %"
b101 I
b101 '"
b10 K
b10 W
b10 #"
b10 ""
b101 &"
b101000000000000010 ("
b100000000100 $"
b11000 A
b11000 R
b11000 c
b11000 X
b10100 N
b10100 !"
b1000101000001010010011 O
b1000101000001010010011 r
b1000101000001010010011 ~
b11000 Y
b100000 1"
1!
#110000
0!
#115000
b11000101010000000100011 <
b11000101010000000100011 m
b0 *
b11000101010000000100011 6
b11000101010000000100011 _
b11000101010000000100011 ;
b11000101010000000100011 4"
b0 L
b0 ]
b0 ^
b0 a
b0 ,
b0 \
b0 q
b0 =
b11 2"
b1111 Z
b1 P
b1 S
b1000000000000000001100 :
b1000000000000000001100 f
b1000000000000000001100 y
17
15
18
1@
b1 /
b1 +"
b100000001111100 D
b100000001111100 w
b0 x
b100 Q
b100 ,"
b1000000000000000001100 A
b1000000000000000001100 R
b1000000000000000001100 c
b1000000000000000001100 X
b111 t
1u
b111 o
b11111 -"
b10101 ."
b1000 E
b1000 s
b1000 v
b11111111010111111111000000000000 G
b11111111010111111111000000000000 *"
b1000000000000000001100 H
b1000000000000000001100 U
b1000000000000000001100 )"
b11111111000 J
b11111111000 V
b11111111000 %"
b11111111111111111111111111100000 I
b11111111111111111111111111100000 '"
b11111111111111111111111111110101 K
b11111111111111111111111111110101 W
b11111111111111111111111111110101 #"
b111111110101 ""
b111111100000 &"
b111111111111111110100 ("
b11111100000 $"
b11100 Y
b11000 N
b11000 !"
b11111111010111111111000001101111 O
b11111111010111111111000001101111 r
b11111111010111111111000001101111 ~
b100000 1"
1!
#120000
0!
#125000
0z
bx 6
bx _
b1100000000001000010011 ;
b1100000000001000010011 4"
1k
b1111 3
b1111 l
1j
b0 2"
b0 Z
1b
b0 P
b0 S
b0 /
b0 +"
b0 :
b0 f
b0 y
07
05
08
0@
b1000100000011 D
b1000100000011 w
b1 x
b0 Q
b0 ,"
b1000000000000000010000 A
b1000000000000000010000 R
b1000000000000000010000 c
b1000000000000000010000 X
b10 t
0u
b10 o
b101 -"
b110 ."
b100000 E
b100000 s
b100000 v
b11000101010000000000000 G
b11000101010000000000000 *"
b1000101010000000010010 H
b1000101010000000010010 U
b1000101010000000010010 )"
b1000000000000000001100 J
b1000000000000000001100 V
b1000000000000000001100 %"
b0 I
b0 '"
b110 K
b110 W
b110 #"
b110 ""
b0 &"
b101010000000000110 ("
b0 $"
b1000000000000000001100 N
b1000000000000000001100 !"
b11000101010000000100011 O
b11000101010000000100011 r
b11000101010000000100011 ~
b1000000000000000010000 Y
b100000 1"
1!
#130000
0!
#135000
b100110000001100010011 ;
b100110000001100010011 4"
b100 2"
b100110000001100010011 6
b100110000001100010011 _
1z
17
b100110000001100010011 <
b100110000001100010011 m
b1000000000000000010000 :
b1000000000000000010000 f
b1000000000000000010000 y
18
15
1@
0k
b0 3
b0 l
0j
0b
b0 D
b0 w
b0 x
b0 t
b0 o
b0 -"
b0 ."
b0 E
b0 s
b0 v
b0 G
b0 *"
b0 H
b0 U
b0 )"
b0 J
b0 V
b0 %"
b0 K
b0 W
b0 #"
b0 ""
b0 ("
b0 N
b0 !"
b0 O
b0 r
b0 ~
b100000 1"
1!
#140000
0!
#145000
b1 Q
b1 ,"
b1 *
b1 L
b1 ]
b1 ^
b1 a
b1 ,
b1 \
b1 q
b1 =
b1000101000001010010011 <
b1000101000001010010011 m
b1000101000001010010011 6
b1000101000001010010011 _
b1000101000001010010011 ;
b1000101000001010010011 4"
b101 2"
b110 /
b110 +"
b100000100000010 D
b100000100000010 w
b100 x
b1000000000000000010100 :
b1000000000000000010100 f
b1000000000000000010100 y
17
15
18
1@
b110 -"
b1 ."
b10000000 E
b10000000 s
b10000000 v
b100110000000000000000 G
b100110000000000000000 *"
b1000110000100000010000 H
b1000110000100000010000 U
b1000110000100000010000 )"
b1000000000000000010110 J
b1000000000000000010110 V
b1000000000000000010110 %"
b110 I
b110 '"
b1 K
b1 W
b1 #"
b1 ""
b110 &"
b110000100000000000 ("
b110 $"
b1000000000000000010100 A
b1000000000000000010100 R
b1000000000000000010100 c
b1000000000000000010100 X
b1000000000000000010000 N
b1000000000000000010000 !"
b100110000001100010011 O
b100110000001100010011 r
b100110000001100010011 ~
b1000000000000000010100 Y
b100000 1"
1!
#150000
0!
#155000
b10 Q
b10 ,"
b10 *
b11111111010111111111000001101111 <
b11111111010111111111000001101111 m
b10 L
b10 ]
b10 ^
b10 a
b11111111010111111111000001101111 6
b11111111010111111111000001101111 _
b10 ,
b10 \
b10 q
b11111111010111111111000001101111 ;
b11111111010111111111000001101111 4"
b10 =
b110 2"
b1000000000000000011000 :
b1000000000000000011000 f
b1000000000000000011000 y
17
15
18
1@
b101 /
b101 +"
b1000000000000000011000 A
b1000000000000000011000 R
b1000000000000000011000 c
b1000000000000000011000 X
b101 -"
b10 ."
b1000101000000000000000 G
b1000101000000000000000 *"
b1000101000000000010110 H
b1000101000000000010110 U
b1000101000000000010110 )"
b1000000000100000011000 J
b1000000000100000011000 V
b1000000000100000011000 %"
b101 I
b101 '"
b10 K
b10 W
b10 #"
b10 ""
b101 &"
b101000000000000010 ("
b100000000100 $"
b1000000000000000011000 Y
b1000000000000000010100 N
b1000000000000000010100 !"
b1000101000001010010011 O
b1000101000001010010011 r
b1000101000001010010011 ~
b100000 1"
1!
#160000
0!
#165000
b0 *
b11000101010000000100011 <
b11000101010000000100011 m
b11000101010000000100011 6
b11000101010000000100011 _
b0 L
b0 ]
b0 ^
b0 a
b0 ,
b0 \
b0 q
b0 =
b11000101010000000100011 ;
b11000101010000000100011 4"
b1111 Z
b1 P
b1 S
b11 2"
b1 /
b1 +"
b100000001111100 D
b100000001111100 w
b0 x
b100 Q
b100 ,"
b10000000000000000001100 :
b10000000000000000001100 f
b10000000000000000001100 y
17
15
18
1@
b111 t
1u
b111 o
b11111 -"
b10101 ."
b1000 E
b1000 s
b1000 v
b11111111010111111111000000000000 G
b11111111010111111111000000000000 *"
b10000000000000000001100 H
b10000000000000000001100 U
b10000000000000000001100 )"
b1000000000011111111000 J
b1000000000011111111000 V
b1000000000011111111000 %"
b11111111111111111111111111100000 I
b11111111111111111111111111100000 '"
b11111111111111111111111111110101 K
b11111111111111111111111111110101 W
b11111111111111111111111111110101 #"
b111111110101 ""
b111111100000 &"
b111111111111111110100 ("
b11111100000 $"
b10000000000000000001100 A
b10000000000000000001100 R
b10000000000000000001100 c
b10000000000000000001100 X
b1000000000000000011000 N
b1000000000000000011000 !"
b11111111010111111111000001101111 O
b11111111010111111111000001101111 r
b11111111010111111111000001101111 ~
b1000000000000000011100 Y
b100000 1"
1!
#170000
0!
#175000
0z
bx 6
bx _
b1100000000001000010011 ;
b1100000000001000010011 4"
1k
b1111 3
b1111 l
1j
b0 2"
b0 Z
1b
b0 P
b0 S
b0 /
b0 +"
b0 :
b0 f
b0 y
07
05
08
0@
b1000100000011 D
b1000100000011 w
b1 x
b0 Q
b0 ,"
b10000000000000000010000 A
b10000000000000000010000 R
b10000000000000000010000 c
b10000000000000000010000 X
b10 t
0u
b10 o
b101 -"
b110 ."
b100000 E
b100000 s
b100000 v
b11000101010000000000000 G
b11000101010000000000000 *"
b10000101010000000010010 H
b10000101010000000010010 U
b10000101010000000010010 )"
b10000000000000000001100 J
b10000000000000000001100 V
b10000000000000000001100 %"
b0 I
b0 '"
b110 K
b110 W
b110 #"
b110 ""
b0 &"
b101010000000000110 ("
b0 $"
b10000000000000000010000 Y
b10000000000000000001100 N
b10000000000000000001100 !"
b11000101010000000100011 O
b11000101010000000100011 r
b11000101010000000100011 ~
b100000 1"
1!
#180000
0!
#185000
b100110000001100010011 ;
b100110000001100010011 4"
b100 2"
b100110000001100010011 6
b100110000001100010011 _
1z
17
b100110000001100010011 <
b100110000001100010011 m
b10000000000000000010000 :
b10000000000000000010000 f
b10000000000000000010000 y
18
15
1@
0k
b0 3
b0 l
0j
0b
b0 D
b0 w
b0 x
b0 t
b0 o
b0 -"
b0 ."
b0 E
b0 s
b0 v
b0 G
b0 *"
b0 H
b0 U
b0 )"
b0 J
b0 V
b0 %"
b0 K
b0 W
b0 #"
b0 ""
b0 ("
b0 N
b0 !"
b0 O
b0 r
b0 ~
b100000 1"
1!
#190000
0!
#195000
b1 Q
b1 ,"
b1 *
b1 L
b1 ]
b1 ^
b1 a
b1 ,
b1 \
b1 q
b1000101000001010010011 <
b1000101000001010010011 m
b1 =
b1000101000001010010011 6
b1000101000001010010011 _
b1000101000001010010011 ;
b1000101000001010010011 4"
b101 2"
b10000000000000000010100 :
b10000000000000000010100 f
b10000000000000000010100 y
17
15
18
1@
b110 /
b110 +"
b100000100000010 D
b100000100000010 w
b100 x
b10000000000000000010100 A
b10000000000000000010100 R
b10000000000000000010100 c
b10000000000000000010100 X
b110 -"
b1 ."
b10000000 E
b10000000 s
b10000000 v
b100110000000000000000 G
b100110000000000000000 *"
b10000110000100000010000 H
b10000110000100000010000 U
b10000110000100000010000 )"
b10000000000000000010110 J
b10000000000000000010110 V
b10000000000000000010110 %"
b110 I
b110 '"
b1 K
b1 W
b1 #"
b1 ""
b110 &"
b110000100000000000 ("
b110 $"
b10000000000000000010100 Y
b10000000000000000010000 N
b10000000000000000010000 !"
b100110000001100010011 O
b100110000001100010011 r
b100110000001100010011 ~
b100000 1"
1!
#200000
0!
#205000
b10 Q
b10 ,"
b10 *
b10 L
b10 ]
b10 ^
b10 a
b11111111010111111111000001101111 <
b11111111010111111111000001101111 m
b10 ,
b10 \
b10 q
b11111111010111111111000001101111 6
b11111111010111111111000001101111 _
b10 =
b11111111010111111111000001101111 ;
b11111111010111111111000001101111 4"
b110 2"
b101 /
b101 +"
b10000000000000000011000 :
b10000000000000000011000 f
b10000000000000000011000 y
17
15
18
1@
b101 -"
b10 ."
b1000101000000000000000 G
b1000101000000000000000 *"
b10000101000000000010110 H
b10000101000000000010110 U
b10000101000000000010110 )"
b10000000000100000011000 J
b10000000000100000011000 V
b10000000000100000011000 %"
b101 I
b101 '"
b10 K
b10 W
b10 #"
b10 ""
b101 &"
b101000000000000010 ("
b100000000100 $"
b10000000000000000011000 A
b10000000000000000011000 R
b10000000000000000011000 c
b10000000000000000011000 X
b10000000000000000010100 N
b10000000000000000010100 !"
b1000101000001010010011 O
b1000101000001010010011 r
b1000101000001010010011 ~
b10000000000000000011000 Y
b100000 1"
1!
#210000
0!
#215000
b11000101010000000100011 <
b11000101010000000100011 m
b0 *
b11000101010000000100011 6
b11000101010000000100011 _
b11000101010000000100011 ;
b11000101010000000100011 4"
b0 L
b0 ]
b0 ^
b0 a
b0 ,
b0 \
b0 q
b0 =
b11 2"
b1111 Z
b1 P
b1 S
b11000000000000000001100 :
b11000000000000000001100 f
b11000000000000000001100 y
17
15
18
1@
b1 /
b1 +"
b100000001111100 D
b100000001111100 w
b0 x
b100 Q
b100 ,"
b11000000000000000001100 A
b11000000000000000001100 R
b11000000000000000001100 c
b11000000000000000001100 X
b111 t
1u
b111 o
b11111 -"
b10101 ."
b1000 E
b1000 s
b1000 v
b11111111010111111111000000000000 G
b11111111010111111111000000000000 *"
b11000000000000000001100 H
b11000000000000000001100 U
b11000000000000000001100 )"
b10000000000011111111000 J
b10000000000011111111000 V
b10000000000011111111000 %"
b11111111111111111111111111100000 I
b11111111111111111111111111100000 '"
b11111111111111111111111111110101 K
b11111111111111111111111111110101 W
b11111111111111111111111111110101 #"
b111111110101 ""
b111111100000 &"
b111111111111111110100 ("
b11111100000 $"
b10000000000000000011100 Y
b10000000000000000011000 N
b10000000000000000011000 !"
b11111111010111111111000001101111 O
b11111111010111111111000001101111 r
b11111111010111111111000001101111 ~
b100000 1"
1!
#220000
0!
#225000
0z
bx 6
bx _
b1100000000001000010011 ;
b1100000000001000010011 4"
1k
b1111 3
b1111 l
1j
b0 2"
b0 Z
1b
b0 P
b0 S
b0 /
b0 +"
b0 :
b0 f
b0 y
07
05
08
0@
b1000100000011 D
b1000100000011 w
b1 x
b0 Q
b0 ,"
b11000000000000000010000 A
b11000000000000000010000 R
b11000000000000000010000 c
b11000000000000000010000 X
b10 t
0u
b10 o
b101 -"
b110 ."
b100000 E
b100000 s
b100000 v
b11000101010000000000000 G
b11000101010000000000000 *"
b11000101010000000010010 H
b11000101010000000010010 U
b11000101010000000010010 )"
b11000000000000000001100 J
b11000000000000000001100 V
b11000000000000000001100 %"
b0 I
b0 '"
b110 K
b110 W
b110 #"
b110 ""
b0 &"
b101010000000000110 ("
b0 $"
b11000000000000000001100 N
b11000000000000000001100 !"
b11000101010000000100011 O
b11000101010000000100011 r
b11000101010000000100011 ~
b11000000000000000010000 Y
b100000 1"
1!
#230000
0!
#235000
b100110000001100010011 ;
b100110000001100010011 4"
b100 2"
b100110000001100010011 6
b100110000001100010011 _
1z
17
b100110000001100010011 <
b100110000001100010011 m
b11000000000000000010000 :
b11000000000000000010000 f
b11000000000000000010000 y
18
15
1@
0k
b0 3
b0 l
0j
0b
b0 D
b0 w
b0 x
b0 t
b0 o
b0 -"
b0 ."
b0 E
b0 s
b0 v
b0 G
b0 *"
b0 H
b0 U
b0 )"
b0 J
b0 V
b0 %"
b0 K
b0 W
b0 #"
b0 ""
b0 ("
b0 N
b0 !"
b0 O
b0 r
b0 ~
b100000 1"
1!
#240000
0!
#245000
b1 Q
b1 ,"
b1 *
b1 L
b1 ]
b1 ^
b1 a
b1 ,
b1 \
b1 q
b1 =
b1000101000001010010011 <
b1000101000001010010011 m
b1000101000001010010011 6
b1000101000001010010011 _
b1000101000001010010011 ;
b1000101000001010010011 4"
b101 2"
b110 /
b110 +"
b100000100000010 D
b100000100000010 w
b100 x
b11000000000000000010100 :
b11000000000000000010100 f
b11000000000000000010100 y
17
15
18
1@
b110 -"
b1 ."
b10000000 E
b10000000 s
b10000000 v
b100110000000000000000 G
b100110000000000000000 *"
b11000110000100000010000 H
b11000110000100000010000 U
b11000110000100000010000 )"
b11000000000000000010110 J
b11000000000000000010110 V
b11000000000000000010110 %"
b110 I
b110 '"
b1 K
b1 W
b1 #"
b1 ""
b110 &"
b110000100000000000 ("
b110 $"
b11000000000000000010100 A
b11000000000000000010100 R
b11000000000000000010100 c
b11000000000000000010100 X
b11000000000000000010000 N
b11000000000000000010000 !"
b100110000001100010011 O
b100110000001100010011 r
b100110000001100010011 ~
b11000000000000000010100 Y
b100000 1"
1!
#250000
0!
#255000
b10 Q
b10 ,"
b10 *
b11111111010111111111000001101111 <
b11111111010111111111000001101111 m
b10 L
b10 ]
b10 ^
b10 a
b11111111010111111111000001101111 6
b11111111010111111111000001101111 _
b10 ,
b10 \
b10 q
b11111111010111111111000001101111 ;
b11111111010111111111000001101111 4"
b10 =
b110 2"
b11000000000000000011000 :
b11000000000000000011000 f
b11000000000000000011000 y
17
15
18
1@
b101 /
b101 +"
b11000000000000000011000 A
b11000000000000000011000 R
b11000000000000000011000 c
b11000000000000000011000 X
b101 -"
b10 ."
b1000101000000000000000 G
b1000101000000000000000 *"
b11000101000000000010110 H
b11000101000000000010110 U
b11000101000000000010110 )"
b11000000000100000011000 J
b11000000000100000011000 V
b11000000000100000011000 %"
b101 I
b101 '"
b10 K
b10 W
b10 #"
b10 ""
b101 &"
b101000000000000010 ("
b100000000100 $"
b11000000000000000011000 Y
b11000000000000000010100 N
b11000000000000000010100 !"
b1000101000001010010011 O
b1000101000001010010011 r
b1000101000001010010011 ~
b100000 1"
1!
#260000
0!
